{"code":200,"meta":{"pagination":{"total":2932,"pages":294,"page":1,"limit":10}},"data":[{"id":1731065,"name":"Deependra Varrier","email":"deependra_varrier@runolfsson.example","gender":"female","status":"active"},{"id":1731064,"name":"Aatreya Varman","email":"aatreya_varman@reichert.example","gender":"female","status":"inactive"},{"id":1731063,"name":"Chandi Chopra","email":"chandi_chopra@abernathy-gusikowski.test","gender":"female","status":"active"},{"id":1731061,"name":"Sukanya Banerjee","email":"sukanya_banerjee@maggio.example","gender":"male","status":"inactive"},{"id":1731060,"name":"Sameer Chopra","email":"sameer_chopra@bins.example","gender":"female","status":"inactive"},{"id":1731059,"name":"Ramesh Butt","email":"ramesh_butt@white.example","gender":"male","status":"active"},{"id":1731058,"name":"Ananda Desai","email":"ananda_desai@senger-leuschke.example","gender":"male","status":"inactive"},{"id":1731056,"name":"Dharmaketu Mehra","email":"dharmaketu_mehra@glover.test","gender":"female","status":"active"},{"id":1731054,"name":"Kanak Saini","email":"saini_kanak@bartoletti.example","gender":"male","status":"active"},{"id":1731053,"name":"Krishnadasa Kaniyar PhD","email":"krishnadasa_kaniyar_phd@cole.test","gender":"female","status":"inactive"}]}